{
  "version": 1,
  "author": "CSU23021 Student",
  "editor": "wokwi",
  "parts": [
    {
      "type": "wokwi-pi-pico",
      "id": "pico",
      "top": -4.67,
      "left": -5.33,
      "attrs": { "env": "arduino-community" }
    },
    {
      "type": "wokwi-pushbutton",
      "id": "btn1",
      "top": 229.42,
      "left": 73.48,
      "attrs": { "color": "green" }
    },
    {
      "type": "wokwi-resistor",
      "id": "r1",
      "top": 139.42,
      "left": 198.81,
      "attrs": { "value": "1000" }
    }
  ],
  "connections": [
    [ "pico:GP0", "$serialMonitor:RX", "", [] ],
    [ "pico:GP1", "$serialMonitor:TX", "", [] ],
    [ "r1:1", "pico:3V3", "green", [ "v0" ] ],
    [ "pico:GND.6", "btn1:2.r", "black", [ "h0" ] ],
    [ "r1:2", "pico:GP21", "green", [ "v0" ] ],
    [ "btn1:1.r", "pico:GP21", "green", [ "v0" ] ]
  ]
}